%YAML 1.1
%TAG !u! tag:unity3d.com,2011:
--- !u!114 &11400000
MonoBehaviour:
  m_ObjectHideFlags: 0
  m_CorrespondingSourceObject: {fileID: 0}
  m_PrefabInstance: {fileID: 0}
  m_PrefabAsset: {fileID: 0}
  m_GameObject: {fileID: 0}
  m_Enabled: 1
  m_EditorHideFlags: 0
  m_Script: {fileID: 11500000, guid: 64cbf13bff2cecb4ab5b5a50d1efcae8, type: 3}
  m_Name: Purble Shroom
  m_EditorClassIdentifier: 
  name: Purble Shrrom
  icon: {fileID: 21300000, guid: 16ccb6ee515a27a4f858e3140ff1669b, type: 3}
  showInInventory: 1
