%YAML 1.1
%TAG !u! tag:unity3d.com,2011:
--- !u!114 &11400000
MonoBehaviour:
  m_ObjectHideFlags: 0
  m_CorrespondingSourceObject: {fileID: 0}
  m_PrefabInstance: {fileID: 0}
  m_PrefabAsset: {fileID: 0}
  m_GameObject: {fileID: 0}
  m_Enabled: 1
  m_EditorHideFlags: 0
  m_Script: {fileID: 11500000, guid: 24801ff7fa195cf45b25972ad6646691, type: 3}
  m_Name: Young Man
  m_EditorClassIdentifier: 
  characterName: 'Young Man:'
  emotionPortraits:
    casual: {fileID: 6811438916002917250, guid: 134a3c184e97efe4bbc95d0789235306, type: 3}
    curious_questioning: {fileID: 6811438916002917250, guid: 134a3c184e97efe4bbc95d0789235306, type: 3}
    surprise: {fileID: 6811438916002917250, guid: 134a3c184e97efe4bbc95d0789235306, type: 3}
    fear_pale: {fileID: 6811438916002917250, guid: 134a3c184e97efe4bbc95d0789235306, type: 3}
    nervous: {fileID: 6811438916002917250, guid: 134a3c184e97efe4bbc95d0789235306, type: 3}
    upset_regretful: {fileID: 6811438916002917250, guid: 134a3c184e97efe4bbc95d0789235306, type: 3}
    excited: {fileID: 6811438916002917250, guid: 134a3c184e97efe4bbc95d0789235306, type: 3}
