%YAML 1.1
%TAG !u! tag:unity3d.com,2011:
--- !u!74 &7400000
AnimationClip:
  m_ObjectHideFlags: 0
  m_CorrespondingSourceObject: {fileID: 0}
  m_PrefabInstance: {fileID: 0}
  m_PrefabAsset: {fileID: 0}
  m_Name: checkpoint Animation
  serializedVersion: 6
  m_Legacy: 0
  m_Compressed: 0
  m_UseHighQualityCurve: 1
  m_RotationCurves: []
  m_CompressedRotationCurves: []
  m_EulerCurves: []
  m_PositionCurves: []
  m_ScaleCurves: []
  m_FloatCurves: []
  m_PPtrCurves:
  - curve:
    - time: 0
      value: {fileID: -3316218745056115977, guid: ff1b0bb4fc513bf4bb1c05db2d1f150d, type: 3}
    - time: 0.41666666
      value: {fileID: -5685312877796877598, guid: ff1b0bb4fc513bf4bb1c05db2d1f150d, type: 3}
    - time: 0.76666665
      value: {fileID: -2614092551772755961, guid: ff1b0bb4fc513bf4bb1c05db2d1f150d, type: 3}
    - time: 1.1
      value: {fileID: -5114578891376099536, guid: ff1b0bb4fc513bf4bb1c05db2d1f150d, type: 3}
    - time: 1.4833333
      value: {fileID: -627227669342941072, guid: ff1b0bb4fc513bf4bb1c05db2d1f150d, type: 3}
    - time: 1.9
      value: {fileID: 3490111800612547818, guid: ff1b0bb4fc513bf4bb1c05db2d1f150d, type: 3}
    - time: 2.2333333
      value: {fileID: -8724309272934680920, guid: ff1b0bb4fc513bf4bb1c05db2d1f150d, type: 3}
    - time: 2.5833333
      value: {fileID: 1358000746977599796, guid: ff1b0bb4fc513bf4bb1c05db2d1f150d, type: 3}
    - time: 3
      value: {fileID: 4798613633496935226, guid: ff1b0bb4fc513bf4bb1c05db2d1f150d, type: 3}
    attribute: m_Sprite
    path: 
    classID: 212
    script: {fileID: 0}
  m_SampleRate: 60
  m_WrapMode: 0
  m_Bounds:
    m_Center: {x: 0, y: 0, z: 0}
    m_Extent: {x: 0, y: 0, z: 0}
  m_ClipBindingConstant:
    genericBindings:
    - serializedVersion: 2
      path: 0
      attribute: 0
      script: {fileID: 0}
      typeID: 212
      customType: 23
      isPPtrCurve: 1
    pptrCurveMapping:
    - {fileID: -3316218745056115977, guid: ff1b0bb4fc513bf4bb1c05db2d1f150d, type: 3}
    - {fileID: -5685312877796877598, guid: ff1b0bb4fc513bf4bb1c05db2d1f150d, type: 3}
    - {fileID: -2614092551772755961, guid: ff1b0bb4fc513bf4bb1c05db2d1f150d, type: 3}
    - {fileID: -5114578891376099536, guid: ff1b0bb4fc513bf4bb1c05db2d1f150d, type: 3}
    - {fileID: -627227669342941072, guid: ff1b0bb4fc513bf4bb1c05db2d1f150d, type: 3}
    - {fileID: 3490111800612547818, guid: ff1b0bb4fc513bf4bb1c05db2d1f150d, type: 3}
    - {fileID: -8724309272934680920, guid: ff1b0bb4fc513bf4bb1c05db2d1f150d, type: 3}
    - {fileID: 1358000746977599796, guid: ff1b0bb4fc513bf4bb1c05db2d1f150d, type: 3}
    - {fileID: 4798613633496935226, guid: ff1b0bb4fc513bf4bb1c05db2d1f150d, type: 3}
  m_AnimationClipSettings:
    serializedVersion: 2
    m_AdditiveReferencePoseClip: {fileID: 0}
    m_AdditiveReferencePoseTime: 0
    m_StartTime: 0
    m_StopTime: 3.0166667
    m_OrientationOffsetY: 0
    m_Level: 0
    m_CycleOffset: 0
    m_HasAdditiveReferencePose: 0
    m_LoopTime: 1
    m_LoopBlend: 0
    m_LoopBlendOrientation: 0
    m_LoopBlendPositionY: 0
    m_LoopBlendPositionXZ: 0
    m_KeepOriginalOrientation: 0
    m_KeepOriginalPositionY: 1
    m_KeepOriginalPositionXZ: 0
    m_HeightFromFeet: 0
    m_Mirror: 0
  m_EditorCurves: []
  m_EulerEditorCurves: []
  m_HasGenericRootTransform: 0
  m_HasMotionFloatCurves: 0
  m_Events: []
