%YAML 1.1
%TAG !u! tag:unity3d.com,2011:
--- !u!114 &11400000
MonoBehaviour:
  m_ObjectHideFlags: 0
  m_CorrespondingSourceObject: {fileID: 0}
  m_PrefabInstance: {fileID: 0}
  m_PrefabAsset: {fileID: 0}
  m_GameObject: {fileID: 0}
  m_Enabled: 1
  m_EditorHideFlags: 0
  m_Script: {fileID: 11500000, guid: 89b5e24d1a4042049ad261810f2c60ca, type: 3}
  m_Name: New Collectable list
  m_EditorClassIdentifier: 
  details:
  - collectableName: red shroom
    collectableDescrption: it's a mushroom and it's red.
    collectablePrefab: {fileID: 3328390498433516602, guid: 0355f419b69a45c4c884b23c2cde1b6f, type: 3}
  - collectableName: purple shroom
    collectableDescrption: if you're asking why would a mushroom be purple, i'm asking
      the same question.
    collectablePrefab: {fileID: 6408548035189059182, guid: 070ea68d7041bf649ae2353136f89b6f, type: 3}
