%YAML 1.1
%TAG !u! tag:unity3d.com,2011:
--- !u!1 &1818437085060329495
GameObject:
  m_ObjectHideFlags: 0
  m_CorrespondingSourceObject: {fileID: 0}
  m_PrefabInstance: {fileID: 0}
  m_PrefabAsset: {fileID: 0}
  serializedVersion: 6
  m_Component:
  - component: {fileID: 1003722824920674782}
  - component: {fileID: 1875842100789048685}
  m_Layer: 31
  m_Name: sea weed
  m_TagString: Untagged
  m_Icon: {fileID: 0}
  m_NavMeshLayer: 0
  m_StaticEditorFlags: 0
  m_IsActive: 1
--- !u!4 &1003722824920674782
Transform:
  m_ObjectHideFlags: 0
  m_CorrespondingSourceObject: {fileID: 0}
  m_PrefabInstance: {fileID: 0}
  m_PrefabAsset: {fileID: 0}
  m_GameObject: {fileID: 1818437085060329495}
  m_LocalRotation: {x: 0, y: 0, z: 0, w: 1}
  m_LocalPosition: {x: 0, y: 0, z: 0}
  m_LocalScale: {x: 1, y: 1, z: 1}
  m_Children:
  - {fileID: 3118363638412526765}
  m_Father: {fileID: 0}
  m_RootOrder: 0
  m_LocalEulerAnglesHint: {x: 0, y: 0, z: 0}
--- !u!156049354 &1875842100789048685
Grid:
  m_ObjectHideFlags: 0
  m_CorrespondingSourceObject: {fileID: 0}
  m_PrefabInstance: {fileID: 0}
  m_PrefabAsset: {fileID: 0}
  m_GameObject: {fileID: 1818437085060329495}
  m_Enabled: 1
  m_CellSize: {x: 1, y: 1, z: 0}
  m_CellGap: {x: 0, y: 0, z: 0}
  m_CellLayout: 0
  m_CellSwizzle: 0
--- !u!1 &6542538091405893372
GameObject:
  m_ObjectHideFlags: 0
  m_CorrespondingSourceObject: {fileID: 0}
  m_PrefabInstance: {fileID: 0}
  m_PrefabAsset: {fileID: 0}
  serializedVersion: 6
  m_Component:
  - component: {fileID: 3118363638412526765}
  - component: {fileID: 1206968575502286172}
  - component: {fileID: 5998237102306461115}
  m_Layer: 0
  m_Name: Layer1
  m_TagString: Untagged
  m_Icon: {fileID: 0}
  m_NavMeshLayer: 0
  m_StaticEditorFlags: 0
  m_IsActive: 1
--- !u!4 &3118363638412526765
Transform:
  m_ObjectHideFlags: 0
  m_CorrespondingSourceObject: {fileID: 0}
  m_PrefabInstance: {fileID: 0}
  m_PrefabAsset: {fileID: 0}
  m_GameObject: {fileID: 6542538091405893372}
  m_LocalRotation: {x: -0, y: -0, z: -0, w: 1}
  m_LocalPosition: {x: 0, y: 0, z: 0}
  m_LocalScale: {x: 1, y: 1, z: 1}
  m_Children: []
  m_Father: {fileID: 1003722824920674782}
  m_RootOrder: 0
  m_LocalEulerAnglesHint: {x: 0, y: 0, z: 0}
--- !u!1839735485 &1206968575502286172
Tilemap:
  m_ObjectHideFlags: 0
  m_CorrespondingSourceObject: {fileID: 0}
  m_PrefabInstance: {fileID: 0}
  m_PrefabAsset: {fileID: 0}
  m_GameObject: {fileID: 6542538091405893372}
  m_Enabled: 1
  m_Tiles:
  - first: {x: -1, y: -9, z: 0}
    second:
      serializedVersion: 2
      m_TileIndex: 90
      m_TileSpriteIndex: 90
      m_TileMatrixIndex: 0
      m_TileColorIndex: 0
      m_TileObjectToInstantiateIndex: 65535
      dummyAlignment: 0
      m_AllTileFlags: 1073741825
  - first: {x: 0, y: -9, z: 0}
    second:
      serializedVersion: 2
      m_TileIndex: 91
      m_TileSpriteIndex: 91
      m_TileMatrixIndex: 0
      m_TileColorIndex: 0
      m_TileObjectToInstantiateIndex: 65535
      dummyAlignment: 0
      m_AllTileFlags: 1073741825
  - first: {x: 1, y: -9, z: 0}
    second:
      serializedVersion: 2
      m_TileIndex: 92
      m_TileSpriteIndex: 92
      m_TileMatrixIndex: 0
      m_TileColorIndex: 0
      m_TileObjectToInstantiateIndex: 65535
      dummyAlignment: 0
      m_AllTileFlags: 1073741825
  - first: {x: 2, y: -9, z: 0}
    second:
      serializedVersion: 2
      m_TileIndex: 93
      m_TileSpriteIndex: 93
      m_TileMatrixIndex: 0
      m_TileColorIndex: 0
      m_TileObjectToInstantiateIndex: 65535
      dummyAlignment: 0
      m_AllTileFlags: 1073741825
  - first: {x: 3, y: -9, z: 0}
    second:
      serializedVersion: 2
      m_TileIndex: 94
      m_TileSpriteIndex: 94
      m_TileMatrixIndex: 0
      m_TileColorIndex: 0
      m_TileObjectToInstantiateIndex: 65535
      dummyAlignment: 0
      m_AllTileFlags: 1073741825
  - first: {x: 4, y: -9, z: 0}
    second:
      serializedVersion: 2
      m_TileIndex: 95
      m_TileSpriteIndex: 95
      m_TileMatrixIndex: 0
      m_TileColorIndex: 0
      m_TileObjectToInstantiateIndex: 65535
      dummyAlignment: 0
      m_AllTileFlags: 1073741825
  - first: {x: 5, y: -9, z: 0}
    second:
      serializedVersion: 2
      m_TileIndex: 96
      m_TileSpriteIndex: 96
      m_TileMatrixIndex: 0
      m_TileColorIndex: 0
      m_TileObjectToInstantiateIndex: 65535
      dummyAlignment: 0
      m_AllTileFlags: 1073741825
  - first: {x: 6, y: -9, z: 0}
    second:
      serializedVersion: 2
      m_TileIndex: 97
      m_TileSpriteIndex: 97
      m_TileMatrixIndex: 0
      m_TileColorIndex: 0
      m_TileObjectToInstantiateIndex: 65535
      dummyAlignment: 0
      m_AllTileFlags: 1073741825
  - first: {x: 7, y: -9, z: 0}
    second:
      serializedVersion: 2
      m_TileIndex: 98
      m_TileSpriteIndex: 98
      m_TileMatrixIndex: 0
      m_TileColorIndex: 0
      m_TileObjectToInstantiateIndex: 65535
      dummyAlignment: 0
      m_AllTileFlags: 1073741825
  - first: {x: 8, y: -9, z: 0}
    second:
      serializedVersion: 2
      m_TileIndex: 99
      m_TileSpriteIndex: 99
      m_TileMatrixIndex: 0
      m_TileColorIndex: 0
      m_TileObjectToInstantiateIndex: 65535
      dummyAlignment: 0
      m_AllTileFlags: 1073741825
  - first: {x: -1, y: -8, z: 0}
    second:
      serializedVersion: 2
      m_TileIndex: 80
      m_TileSpriteIndex: 80
      m_TileMatrixIndex: 0
      m_TileColorIndex: 0
      m_TileObjectToInstantiateIndex: 65535
      dummyAlignment: 0
      m_AllTileFlags: 1073741825
  - first: {x: 0, y: -8, z: 0}
    second:
      serializedVersion: 2
      m_TileIndex: 81
      m_TileSpriteIndex: 81
      m_TileMatrixIndex: 0
      m_TileColorIndex: 0
      m_TileObjectToInstantiateIndex: 65535
      dummyAlignment: 0
      m_AllTileFlags: 1073741825
  - first: {x: 1, y: -8, z: 0}
    second:
      serializedVersion: 2
      m_TileIndex: 82
      m_TileSpriteIndex: 82
      m_TileMatrixIndex: 0
      m_TileColorIndex: 0
      m_TileObjectToInstantiateIndex: 65535
      dummyAlignment: 0
      m_AllTileFlags: 1073741825
  - first: {x: 2, y: -8, z: 0}
    second:
      serializedVersion: 2
      m_TileIndex: 83
      m_TileSpriteIndex: 83
      m_TileMatrixIndex: 0
      m_TileColorIndex: 0
      m_TileObjectToInstantiateIndex: 65535
      dummyAlignment: 0
      m_AllTileFlags: 1073741825
  - first: {x: 3, y: -8, z: 0}
    second:
      serializedVersion: 2
      m_TileIndex: 84
      m_TileSpriteIndex: 84
      m_TileMatrixIndex: 0
      m_TileColorIndex: 0
      m_TileObjectToInstantiateIndex: 65535
      dummyAlignment: 0
      m_AllTileFlags: 1073741825
  - first: {x: 4, y: -8, z: 0}
    second:
      serializedVersion: 2
      m_TileIndex: 85
      m_TileSpriteIndex: 85
      m_TileMatrixIndex: 0
      m_TileColorIndex: 0
      m_TileObjectToInstantiateIndex: 65535
      dummyAlignment: 0
      m_AllTileFlags: 1073741825
  - first: {x: 5, y: -8, z: 0}
    second:
      serializedVersion: 2
      m_TileIndex: 86
      m_TileSpriteIndex: 86
      m_TileMatrixIndex: 0
      m_TileColorIndex: 0
      m_TileObjectToInstantiateIndex: 65535
      dummyAlignment: 0
      m_AllTileFlags: 1073741825
  - first: {x: 6, y: -8, z: 0}
    second:
      serializedVersion: 2
      m_TileIndex: 87
      m_TileSpriteIndex: 87
      m_TileMatrixIndex: 0
      m_TileColorIndex: 0
      m_TileObjectToInstantiateIndex: 65535
      dummyAlignment: 0
      m_AllTileFlags: 1073741825
  - first: {x: 7, y: -8, z: 0}
    second:
      serializedVersion: 2
      m_TileIndex: 88
      m_TileSpriteIndex: 88
      m_TileMatrixIndex: 0
      m_TileColorIndex: 0
      m_TileObjectToInstantiateIndex: 65535
      dummyAlignment: 0
      m_AllTileFlags: 1073741825
  - first: {x: 8, y: -8, z: 0}
    second:
      serializedVersion: 2
      m_TileIndex: 89
      m_TileSpriteIndex: 89
      m_TileMatrixIndex: 0
      m_TileColorIndex: 0
      m_TileObjectToInstantiateIndex: 65535
      dummyAlignment: 0
      m_AllTileFlags: 1073741825
  - first: {x: -1, y: -7, z: 0}
    second:
      serializedVersion: 2
      m_TileIndex: 70
      m_TileSpriteIndex: 70
      m_TileMatrixIndex: 0
      m_TileColorIndex: 0
      m_TileObjectToInstantiateIndex: 65535
      dummyAlignment: 0
      m_AllTileFlags: 1073741825
  - first: {x: 0, y: -7, z: 0}
    second:
      serializedVersion: 2
      m_TileIndex: 71
      m_TileSpriteIndex: 71
      m_TileMatrixIndex: 0
      m_TileColorIndex: 0
      m_TileObjectToInstantiateIndex: 65535
      dummyAlignment: 0
      m_AllTileFlags: 1073741825
  - first: {x: 1, y: -7, z: 0}
    second:
      serializedVersion: 2
      m_TileIndex: 72
      m_TileSpriteIndex: 72
      m_TileMatrixIndex: 0
      m_TileColorIndex: 0
      m_TileObjectToInstantiateIndex: 65535
      dummyAlignment: 0
      m_AllTileFlags: 1073741825
  - first: {x: 2, y: -7, z: 0}
    second:
      serializedVersion: 2
      m_TileIndex: 73
      m_TileSpriteIndex: 73
      m_TileMatrixIndex: 0
      m_TileColorIndex: 0
      m_TileObjectToInstantiateIndex: 65535
      dummyAlignment: 0
      m_AllTileFlags: 1073741825
  - first: {x: 3, y: -7, z: 0}
    second:
      serializedVersion: 2
      m_TileIndex: 74
      m_TileSpriteIndex: 74
      m_TileMatrixIndex: 0
      m_TileColorIndex: 0
      m_TileObjectToInstantiateIndex: 65535
      dummyAlignment: 0
      m_AllTileFlags: 1073741825
  - first: {x: 4, y: -7, z: 0}
    second:
      serializedVersion: 2
      m_TileIndex: 75
      m_TileSpriteIndex: 75
      m_TileMatrixIndex: 0
      m_TileColorIndex: 0
      m_TileObjectToInstantiateIndex: 65535
      dummyAlignment: 0
      m_AllTileFlags: 1073741825
  - first: {x: 5, y: -7, z: 0}
    second:
      serializedVersion: 2
      m_TileIndex: 76
      m_TileSpriteIndex: 76
      m_TileMatrixIndex: 0
      m_TileColorIndex: 0
      m_TileObjectToInstantiateIndex: 65535
      dummyAlignment: 0
      m_AllTileFlags: 1073741825
  - first: {x: 6, y: -7, z: 0}
    second:
      serializedVersion: 2
      m_TileIndex: 77
      m_TileSpriteIndex: 77
      m_TileMatrixIndex: 0
      m_TileColorIndex: 0
      m_TileObjectToInstantiateIndex: 65535
      dummyAlignment: 0
      m_AllTileFlags: 1073741825
  - first: {x: 7, y: -7, z: 0}
    second:
      serializedVersion: 2
      m_TileIndex: 78
      m_TileSpriteIndex: 78
      m_TileMatrixIndex: 0
      m_TileColorIndex: 0
      m_TileObjectToInstantiateIndex: 65535
      dummyAlignment: 0
      m_AllTileFlags: 1073741825
  - first: {x: 8, y: -7, z: 0}
    second:
      serializedVersion: 2
      m_TileIndex: 79
      m_TileSpriteIndex: 79
      m_TileMatrixIndex: 0
      m_TileColorIndex: 0
      m_TileObjectToInstantiateIndex: 65535
      dummyAlignment: 0
      m_AllTileFlags: 1073741825
  - first: {x: -1, y: -6, z: 0}
    second:
      serializedVersion: 2
      m_TileIndex: 60
      m_TileSpriteIndex: 60
      m_TileMatrixIndex: 0
      m_TileColorIndex: 0
      m_TileObjectToInstantiateIndex: 65535
      dummyAlignment: 0
      m_AllTileFlags: 1073741825
  - first: {x: 0, y: -6, z: 0}
    second:
      serializedVersion: 2
      m_TileIndex: 61
      m_TileSpriteIndex: 61
      m_TileMatrixIndex: 0
      m_TileColorIndex: 0
      m_TileObjectToInstantiateIndex: 65535
      dummyAlignment: 0
      m_AllTileFlags: 1073741825
  - first: {x: 1, y: -6, z: 0}
    second:
      serializedVersion: 2
      m_TileIndex: 62
      m_TileSpriteIndex: 62
      m_TileMatrixIndex: 0
      m_TileColorIndex: 0
      m_TileObjectToInstantiateIndex: 65535
      dummyAlignment: 0
      m_AllTileFlags: 1073741825
  - first: {x: 2, y: -6, z: 0}
    second:
      serializedVersion: 2
      m_TileIndex: 63
      m_TileSpriteIndex: 63
      m_TileMatrixIndex: 0
      m_TileColorIndex: 0
      m_TileObjectToInstantiateIndex: 65535
      dummyAlignment: 0
      m_AllTileFlags: 1073741825
  - first: {x: 3, y: -6, z: 0}
    second:
      serializedVersion: 2
      m_TileIndex: 64
      m_TileSpriteIndex: 64
      m_TileMatrixIndex: 0
      m_TileColorIndex: 0
      m_TileObjectToInstantiateIndex: 65535
      dummyAlignment: 0
      m_AllTileFlags: 1073741825
  - first: {x: 4, y: -6, z: 0}
    second:
      serializedVersion: 2
      m_TileIndex: 65
      m_TileSpriteIndex: 65
      m_TileMatrixIndex: 0
      m_TileColorIndex: 0
      m_TileObjectToInstantiateIndex: 65535
      dummyAlignment: 0
      m_AllTileFlags: 1073741825
  - first: {x: 5, y: -6, z: 0}
    second:
      serializedVersion: 2
      m_TileIndex: 66
      m_TileSpriteIndex: 66
      m_TileMatrixIndex: 0
      m_TileColorIndex: 0
      m_TileObjectToInstantiateIndex: 65535
      dummyAlignment: 0
      m_AllTileFlags: 1073741825
  - first: {x: 6, y: -6, z: 0}
    second:
      serializedVersion: 2
      m_TileIndex: 67
      m_TileSpriteIndex: 67
      m_TileMatrixIndex: 0
      m_TileColorIndex: 0
      m_TileObjectToInstantiateIndex: 65535
      dummyAlignment: 0
      m_AllTileFlags: 1073741825
  - first: {x: 7, y: -6, z: 0}
    second:
      serializedVersion: 2
      m_TileIndex: 68
      m_TileSpriteIndex: 68
      m_TileMatrixIndex: 0
      m_TileColorIndex: 0
      m_TileObjectToInstantiateIndex: 65535
      dummyAlignment: 0
      m_AllTileFlags: 1073741825
  - first: {x: 8, y: -6, z: 0}
    second:
      serializedVersion: 2
      m_TileIndex: 69
      m_TileSpriteIndex: 69
      m_TileMatrixIndex: 0
      m_TileColorIndex: 0
      m_TileObjectToInstantiateIndex: 65535
      dummyAlignment: 0
      m_AllTileFlags: 1073741825
  - first: {x: -1, y: -5, z: 0}
    second:
      serializedVersion: 2
      m_TileIndex: 50
      m_TileSpriteIndex: 50
      m_TileMatrixIndex: 0
      m_TileColorIndex: 0
      m_TileObjectToInstantiateIndex: 65535
      dummyAlignment: 0
      m_AllTileFlags: 1073741825
  - first: {x: 0, y: -5, z: 0}
    second:
      serializedVersion: 2
      m_TileIndex: 51
      m_TileSpriteIndex: 51
      m_TileMatrixIndex: 0
      m_TileColorIndex: 0
      m_TileObjectToInstantiateIndex: 65535
      dummyAlignment: 0
      m_AllTileFlags: 1073741825
  - first: {x: 1, y: -5, z: 0}
    second:
      serializedVersion: 2
      m_TileIndex: 52
      m_TileSpriteIndex: 52
      m_TileMatrixIndex: 0
      m_TileColorIndex: 0
      m_TileObjectToInstantiateIndex: 65535
      dummyAlignment: 0
      m_AllTileFlags: 1073741825
  - first: {x: 2, y: -5, z: 0}
    second:
      serializedVersion: 2
      m_TileIndex: 53
      m_TileSpriteIndex: 53
      m_TileMatrixIndex: 0
      m_TileColorIndex: 0
      m_TileObjectToInstantiateIndex: 65535
      dummyAlignment: 0
      m_AllTileFlags: 1073741825
  - first: {x: 3, y: -5, z: 0}
    second:
      serializedVersion: 2
      m_TileIndex: 54
      m_TileSpriteIndex: 54
      m_TileMatrixIndex: 0
      m_TileColorIndex: 0
      m_TileObjectToInstantiateIndex: 65535
      dummyAlignment: 0
      m_AllTileFlags: 1073741825
  - first: {x: 4, y: -5, z: 0}
    second:
      serializedVersion: 2
      m_TileIndex: 55
      m_TileSpriteIndex: 55
      m_TileMatrixIndex: 0
      m_TileColorIndex: 0
      m_TileObjectToInstantiateIndex: 65535
      dummyAlignment: 0
      m_AllTileFlags: 1073741825
  - first: {x: 5, y: -5, z: 0}
    second:
      serializedVersion: 2
      m_TileIndex: 56
      m_TileSpriteIndex: 56
      m_TileMatrixIndex: 0
      m_TileColorIndex: 0
      m_TileObjectToInstantiateIndex: 65535
      dummyAlignment: 0
      m_AllTileFlags: 1073741825
  - first: {x: 6, y: -5, z: 0}
    second:
      serializedVersion: 2
      m_TileIndex: 57
      m_TileSpriteIndex: 57
      m_TileMatrixIndex: 0
      m_TileColorIndex: 0
      m_TileObjectToInstantiateIndex: 65535
      dummyAlignment: 0
      m_AllTileFlags: 1073741825
  - first: {x: 7, y: -5, z: 0}
    second:
      serializedVersion: 2
      m_TileIndex: 58
      m_TileSpriteIndex: 58
      m_TileMatrixIndex: 0
      m_TileColorIndex: 0
      m_TileObjectToInstantiateIndex: 65535
      dummyAlignment: 0
      m_AllTileFlags: 1073741825
  - first: {x: 8, y: -5, z: 0}
    second:
      serializedVersion: 2
      m_TileIndex: 59
      m_TileSpriteIndex: 59
      m_TileMatrixIndex: 0
      m_TileColorIndex: 0
      m_TileObjectToInstantiateIndex: 65535
      dummyAlignment: 0
      m_AllTileFlags: 1073741825
  - first: {x: -1, y: -4, z: 0}
    second:
      serializedVersion: 2
      m_TileIndex: 40
      m_TileSpriteIndex: 40
      m_TileMatrixIndex: 0
      m_TileColorIndex: 0
      m_TileObjectToInstantiateIndex: 65535
      dummyAlignment: 0
      m_AllTileFlags: 1073741825
  - first: {x: 0, y: -4, z: 0}
    second:
      serializedVersion: 2
      m_TileIndex: 41
      m_TileSpriteIndex: 41
      m_TileMatrixIndex: 0
      m_TileColorIndex: 0
      m_TileObjectToInstantiateIndex: 65535
      dummyAlignment: 0
      m_AllTileFlags: 1073741825
  - first: {x: 1, y: -4, z: 0}
    second:
      serializedVersion: 2
      m_TileIndex: 42
      m_TileSpriteIndex: 42
      m_TileMatrixIndex: 0
      m_TileColorIndex: 0
      m_TileObjectToInstantiateIndex: 65535
      dummyAlignment: 0
      m_AllTileFlags: 1073741825
  - first: {x: 2, y: -4, z: 0}
    second:
      serializedVersion: 2
      m_TileIndex: 43
      m_TileSpriteIndex: 43
      m_TileMatrixIndex: 0
      m_TileColorIndex: 0
      m_TileObjectToInstantiateIndex: 65535
      dummyAlignment: 0
      m_AllTileFlags: 1073741825
  - first: {x: 3, y: -4, z: 0}
    second:
      serializedVersion: 2
      m_TileIndex: 44
      m_TileSpriteIndex: 44
      m_TileMatrixIndex: 0
      m_TileColorIndex: 0
      m_TileObjectToInstantiateIndex: 65535
      dummyAlignment: 0
      m_AllTileFlags: 1073741825
  - first: {x: 4, y: -4, z: 0}
    second:
      serializedVersion: 2
      m_TileIndex: 45
      m_TileSpriteIndex: 45
      m_TileMatrixIndex: 0
      m_TileColorIndex: 0
      m_TileObjectToInstantiateIndex: 65535
      dummyAlignment: 0
      m_AllTileFlags: 1073741825
  - first: {x: 5, y: -4, z: 0}
    second:
      serializedVersion: 2
      m_TileIndex: 46
      m_TileSpriteIndex: 46
      m_TileMatrixIndex: 0
      m_TileColorIndex: 0
      m_TileObjectToInstantiateIndex: 65535
      dummyAlignment: 0
      m_AllTileFlags: 1073741825
  - first: {x: 6, y: -4, z: 0}
    second:
      serializedVersion: 2
      m_TileIndex: 47
      m_TileSpriteIndex: 47
      m_TileMatrixIndex: 0
      m_TileColorIndex: 0
      m_TileObjectToInstantiateIndex: 65535
      dummyAlignment: 0
      m_AllTileFlags: 1073741825
  - first: {x: 7, y: -4, z: 0}
    second:
      serializedVersion: 2
      m_TileIndex: 48
      m_TileSpriteIndex: 48
      m_TileMatrixIndex: 0
      m_TileColorIndex: 0
      m_TileObjectToInstantiateIndex: 65535
      dummyAlignment: 0
      m_AllTileFlags: 1073741825
  - first: {x: 8, y: -4, z: 0}
    second:
      serializedVersion: 2
      m_TileIndex: 49
      m_TileSpriteIndex: 49
      m_TileMatrixIndex: 0
      m_TileColorIndex: 0
      m_TileObjectToInstantiateIndex: 65535
      dummyAlignment: 0
      m_AllTileFlags: 1073741825
  - first: {x: -1, y: -3, z: 0}
    second:
      serializedVersion: 2
      m_TileIndex: 30
      m_TileSpriteIndex: 30
      m_TileMatrixIndex: 0
      m_TileColorIndex: 0
      m_TileObjectToInstantiateIndex: 65535
      dummyAlignment: 0
      m_AllTileFlags: 1073741825
  - first: {x: 0, y: -3, z: 0}
    second:
      serializedVersion: 2
      m_TileIndex: 31
      m_TileSpriteIndex: 31
      m_TileMatrixIndex: 0
      m_TileColorIndex: 0
      m_TileObjectToInstantiateIndex: 65535
      dummyAlignment: 0
      m_AllTileFlags: 1073741825
  - first: {x: 1, y: -3, z: 0}
    second:
      serializedVersion: 2
      m_TileIndex: 32
      m_TileSpriteIndex: 32
      m_TileMatrixIndex: 0
      m_TileColorIndex: 0
      m_TileObjectToInstantiateIndex: 65535
      dummyAlignment: 0
      m_AllTileFlags: 1073741825
  - first: {x: 2, y: -3, z: 0}
    second:
      serializedVersion: 2
      m_TileIndex: 33
      m_TileSpriteIndex: 33
      m_TileMatrixIndex: 0
      m_TileColorIndex: 0
      m_TileObjectToInstantiateIndex: 65535
      dummyAlignment: 0
      m_AllTileFlags: 1073741825
  - first: {x: 3, y: -3, z: 0}
    second:
      serializedVersion: 2
      m_TileIndex: 34
      m_TileSpriteIndex: 34
      m_TileMatrixIndex: 0
      m_TileColorIndex: 0
      m_TileObjectToInstantiateIndex: 65535
      dummyAlignment: 0
      m_AllTileFlags: 1073741825
  - first: {x: 4, y: -3, z: 0}
    second:
      serializedVersion: 2
      m_TileIndex: 35
      m_TileSpriteIndex: 35
      m_TileMatrixIndex: 0
      m_TileColorIndex: 0
      m_TileObjectToInstantiateIndex: 65535
      dummyAlignment: 0
      m_AllTileFlags: 1073741825
  - first: {x: 5, y: -3, z: 0}
    second:
      serializedVersion: 2
      m_TileIndex: 36
      m_TileSpriteIndex: 36
      m_TileMatrixIndex: 0
      m_TileColorIndex: 0
      m_TileObjectToInstantiateIndex: 65535
      dummyAlignment: 0
      m_AllTileFlags: 1073741825
  - first: {x: 6, y: -3, z: 0}
    second:
      serializedVersion: 2
      m_TileIndex: 37
      m_TileSpriteIndex: 37
      m_TileMatrixIndex: 0
      m_TileColorIndex: 0
      m_TileObjectToInstantiateIndex: 65535
      dummyAlignment: 0
      m_AllTileFlags: 1073741825
  - first: {x: 7, y: -3, z: 0}
    second:
      serializedVersion: 2
      m_TileIndex: 38
      m_TileSpriteIndex: 38
      m_TileMatrixIndex: 0
      m_TileColorIndex: 0
      m_TileObjectToInstantiateIndex: 65535
      dummyAlignment: 0
      m_AllTileFlags: 1073741825
  - first: {x: 8, y: -3, z: 0}
    second:
      serializedVersion: 2
      m_TileIndex: 39
      m_TileSpriteIndex: 39
      m_TileMatrixIndex: 0
      m_TileColorIndex: 0
      m_TileObjectToInstantiateIndex: 65535
      dummyAlignment: 0
      m_AllTileFlags: 1073741825
  - first: {x: -1, y: -2, z: 0}
    second:
      serializedVersion: 2
      m_TileIndex: 20
      m_TileSpriteIndex: 20
      m_TileMatrixIndex: 0
      m_TileColorIndex: 0
      m_TileObjectToInstantiateIndex: 65535
      dummyAlignment: 0
      m_AllTileFlags: 1073741825
  - first: {x: 0, y: -2, z: 0}
    second:
      serializedVersion: 2
      m_TileIndex: 21
      m_TileSpriteIndex: 21
      m_TileMatrixIndex: 0
      m_TileColorIndex: 0
      m_TileObjectToInstantiateIndex: 65535
      dummyAlignment: 0
      m_AllTileFlags: 1073741825
  - first: {x: 1, y: -2, z: 0}
    second:
      serializedVersion: 2
      m_TileIndex: 22
      m_TileSpriteIndex: 22
      m_TileMatrixIndex: 0
      m_TileColorIndex: 0
      m_TileObjectToInstantiateIndex: 65535
      dummyAlignment: 0
      m_AllTileFlags: 1073741825
  - first: {x: 2, y: -2, z: 0}
    second:
      serializedVersion: 2
      m_TileIndex: 23
      m_TileSpriteIndex: 23
      m_TileMatrixIndex: 0
      m_TileColorIndex: 0
      m_TileObjectToInstantiateIndex: 65535
      dummyAlignment: 0
      m_AllTileFlags: 1073741825
  - first: {x: 3, y: -2, z: 0}
    second:
      serializedVersion: 2
      m_TileIndex: 24
      m_TileSpriteIndex: 24
      m_TileMatrixIndex: 0
      m_TileColorIndex: 0
      m_TileObjectToInstantiateIndex: 65535
      dummyAlignment: 0
      m_AllTileFlags: 1073741825
  - first: {x: 4, y: -2, z: 0}
    second:
      serializedVersion: 2
      m_TileIndex: 25
      m_TileSpriteIndex: 25
      m_TileMatrixIndex: 0
      m_TileColorIndex: 0
      m_TileObjectToInstantiateIndex: 65535
      dummyAlignment: 0
      m_AllTileFlags: 1073741825
  - first: {x: 5, y: -2, z: 0}
    second:
      serializedVersion: 2
      m_TileIndex: 26
      m_TileSpriteIndex: 26
      m_TileMatrixIndex: 0
      m_TileColorIndex: 0
      m_TileObjectToInstantiateIndex: 65535
      dummyAlignment: 0
      m_AllTileFlags: 1073741825
  - first: {x: 6, y: -2, z: 0}
    second:
      serializedVersion: 2
      m_TileIndex: 27
      m_TileSpriteIndex: 27
      m_TileMatrixIndex: 0
      m_TileColorIndex: 0
      m_TileObjectToInstantiateIndex: 65535
      dummyAlignment: 0
      m_AllTileFlags: 1073741825
  - first: {x: 7, y: -2, z: 0}
    second:
      serializedVersion: 2
      m_TileIndex: 28
      m_TileSpriteIndex: 28
      m_TileMatrixIndex: 0
      m_TileColorIndex: 0
      m_TileObjectToInstantiateIndex: 65535
      dummyAlignment: 0
      m_AllTileFlags: 1073741825
  - first: {x: 8, y: -2, z: 0}
    second:
      serializedVersion: 2
      m_TileIndex: 29
      m_TileSpriteIndex: 29
      m_TileMatrixIndex: 0
      m_TileColorIndex: 0
      m_TileObjectToInstantiateIndex: 65535
      dummyAlignment: 0
      m_AllTileFlags: 1073741825
  - first: {x: -1, y: -1, z: 0}
    second:
      serializedVersion: 2
      m_TileIndex: 10
      m_TileSpriteIndex: 10
      m_TileMatrixIndex: 0
      m_TileColorIndex: 0
      m_TileObjectToInstantiateIndex: 65535
      dummyAlignment: 0
      m_AllTileFlags: 1073741825
  - first: {x: 0, y: -1, z: 0}
    second:
      serializedVersion: 2
      m_TileIndex: 11
      m_TileSpriteIndex: 11
      m_TileMatrixIndex: 0
      m_TileColorIndex: 0
      m_TileObjectToInstantiateIndex: 65535
      dummyAlignment: 0
      m_AllTileFlags: 1073741825
  - first: {x: 1, y: -1, z: 0}
    second:
      serializedVersion: 2
      m_TileIndex: 12
      m_TileSpriteIndex: 12
      m_TileMatrixIndex: 0
      m_TileColorIndex: 0
      m_TileObjectToInstantiateIndex: 65535
      dummyAlignment: 0
      m_AllTileFlags: 1073741825
  - first: {x: 2, y: -1, z: 0}
    second:
      serializedVersion: 2
      m_TileIndex: 13
      m_TileSpriteIndex: 13
      m_TileMatrixIndex: 0
      m_TileColorIndex: 0
      m_TileObjectToInstantiateIndex: 65535
      dummyAlignment: 0
      m_AllTileFlags: 1073741825
  - first: {x: 3, y: -1, z: 0}
    second:
      serializedVersion: 2
      m_TileIndex: 14
      m_TileSpriteIndex: 14
      m_TileMatrixIndex: 0
      m_TileColorIndex: 0
      m_TileObjectToInstantiateIndex: 65535
      dummyAlignment: 0
      m_AllTileFlags: 1073741825
  - first: {x: 4, y: -1, z: 0}
    second:
      serializedVersion: 2
      m_TileIndex: 15
      m_TileSpriteIndex: 15
      m_TileMatrixIndex: 0
      m_TileColorIndex: 0
      m_TileObjectToInstantiateIndex: 65535
      dummyAlignment: 0
      m_AllTileFlags: 1073741825
  - first: {x: 5, y: -1, z: 0}
    second:
      serializedVersion: 2
      m_TileIndex: 16
      m_TileSpriteIndex: 16
      m_TileMatrixIndex: 0
      m_TileColorIndex: 0
      m_TileObjectToInstantiateIndex: 65535
      dummyAlignment: 0
      m_AllTileFlags: 1073741825
  - first: {x: 6, y: -1, z: 0}
    second:
      serializedVersion: 2
      m_TileIndex: 17
      m_TileSpriteIndex: 17
      m_TileMatrixIndex: 0
      m_TileColorIndex: 0
      m_TileObjectToInstantiateIndex: 65535
      dummyAlignment: 0
      m_AllTileFlags: 1073741825
  - first: {x: 7, y: -1, z: 0}
    second:
      serializedVersion: 2
      m_TileIndex: 18
      m_TileSpriteIndex: 18
      m_TileMatrixIndex: 0
      m_TileColorIndex: 0
      m_TileObjectToInstantiateIndex: 65535
      dummyAlignment: 0
      m_AllTileFlags: 1073741825
  - first: {x: 8, y: -1, z: 0}
    second:
      serializedVersion: 2
      m_TileIndex: 19
      m_TileSpriteIndex: 19
      m_TileMatrixIndex: 0
      m_TileColorIndex: 0
      m_TileObjectToInstantiateIndex: 65535
      dummyAlignment: 0
      m_AllTileFlags: 1073741825
  - first: {x: -1, y: 0, z: 0}
    second:
      serializedVersion: 2
      m_TileIndex: 0
      m_TileSpriteIndex: 0
      m_TileMatrixIndex: 0
      m_TileColorIndex: 0
      m_TileObjectToInstantiateIndex: 65535
      dummyAlignment: 0
      m_AllTileFlags: 1073741825
  - first: {x: 0, y: 0, z: 0}
    second:
      serializedVersion: 2
      m_TileIndex: 1
      m_TileSpriteIndex: 1
      m_TileMatrixIndex: 0
      m_TileColorIndex: 0
      m_TileObjectToInstantiateIndex: 65535
      dummyAlignment: 0
      m_AllTileFlags: 1073741825
  - first: {x: 1, y: 0, z: 0}
    second:
      serializedVersion: 2
      m_TileIndex: 2
      m_TileSpriteIndex: 2
      m_TileMatrixIndex: 0
      m_TileColorIndex: 0
      m_TileObjectToInstantiateIndex: 65535
      dummyAlignment: 0
      m_AllTileFlags: 1073741825
  - first: {x: 2, y: 0, z: 0}
    second:
      serializedVersion: 2
      m_TileIndex: 3
      m_TileSpriteIndex: 3
      m_TileMatrixIndex: 0
      m_TileColorIndex: 0
      m_TileObjectToInstantiateIndex: 65535
      dummyAlignment: 0
      m_AllTileFlags: 1073741825
  - first: {x: 3, y: 0, z: 0}
    second:
      serializedVersion: 2
      m_TileIndex: 4
      m_TileSpriteIndex: 4
      m_TileMatrixIndex: 0
      m_TileColorIndex: 0
      m_TileObjectToInstantiateIndex: 65535
      dummyAlignment: 0
      m_AllTileFlags: 1073741825
  - first: {x: 4, y: 0, z: 0}
    second:
      serializedVersion: 2
      m_TileIndex: 5
      m_TileSpriteIndex: 5
      m_TileMatrixIndex: 0
      m_TileColorIndex: 0
      m_TileObjectToInstantiateIndex: 65535
      dummyAlignment: 0
      m_AllTileFlags: 1073741825
  - first: {x: 5, y: 0, z: 0}
    second:
      serializedVersion: 2
      m_TileIndex: 6
      m_TileSpriteIndex: 6
      m_TileMatrixIndex: 0
      m_TileColorIndex: 0
      m_TileObjectToInstantiateIndex: 65535
      dummyAlignment: 0
      m_AllTileFlags: 1073741825
  - first: {x: 6, y: 0, z: 0}
    second:
      serializedVersion: 2
      m_TileIndex: 7
      m_TileSpriteIndex: 7
      m_TileMatrixIndex: 0
      m_TileColorIndex: 0
      m_TileObjectToInstantiateIndex: 65535
      dummyAlignment: 0
      m_AllTileFlags: 1073741825
  - first: {x: 7, y: 0, z: 0}
    second:
      serializedVersion: 2
      m_TileIndex: 8
      m_TileSpriteIndex: 8
      m_TileMatrixIndex: 0
      m_TileColorIndex: 0
      m_TileObjectToInstantiateIndex: 65535
      dummyAlignment: 0
      m_AllTileFlags: 1073741825
  - first: {x: 8, y: 0, z: 0}
    second:
      serializedVersion: 2
      m_TileIndex: 9
      m_TileSpriteIndex: 9
      m_TileMatrixIndex: 0
      m_TileColorIndex: 0
      m_TileObjectToInstantiateIndex: 65535
      dummyAlignment: 0
      m_AllTileFlags: 1073741825
  m_AnimatedTiles: {}
  m_TileAssetArray:
  - m_RefCount: 1
    m_Data: {fileID: 11400000, guid: dd51eb9079e3f0146a91405d30f623c7, type: 2}
  - m_RefCount: 1
    m_Data: {fileID: 11400000, guid: cc7716c49a9eaa041b95a19f04d95f76, type: 2}
  - m_RefCount: 1
    m_Data: {fileID: 11400000, guid: 4fe3d4ae2bfefcb49aab8cf362aed90d, type: 2}
  - m_RefCount: 1
    m_Data: {fileID: 11400000, guid: 45ecdd0f594a3544eb37207356f6c7d0, type: 2}
  - m_RefCount: 1
    m_Data: {fileID: 11400000, guid: 5ef5bd566ed81d8469f703aef42ad7c4, type: 2}
  - m_RefCount: 1
    m_Data: {fileID: 11400000, guid: 6092aa20291109b408f5bd026f2c64b7, type: 2}
  - m_RefCount: 1
    m_Data: {fileID: 11400000, guid: 557efd4589f3a6a48a556309b843a29a, type: 2}
  - m_RefCount: 1
    m_Data: {fileID: 11400000, guid: 39d9e1f73b6aa7c4ba1c7d0fac4dd013, type: 2}
  - m_RefCount: 1
    m_Data: {fileID: 11400000, guid: 5837d63a9a171c6428d91ce28f18bd49, type: 2}
  - m_RefCount: 1
    m_Data: {fileID: 11400000, guid: e30d3fb6fe2d52f4791ce87e26845af6, type: 2}
  - m_RefCount: 1
    m_Data: {fileID: 11400000, guid: 5265a5f76826c0c4ba119592ff253761, type: 2}
  - m_RefCount: 1
    m_Data: {fileID: 11400000, guid: 7f43c710122274048b9f9348de3a7786, type: 2}
  - m_RefCount: 1
    m_Data: {fileID: 11400000, guid: 81b1262daeaa36642aae76b27a4efc77, type: 2}
  - m_RefCount: 1
    m_Data: {fileID: 11400000, guid: 1e12bc971b595f943a6d0dc33e96ce20, type: 2}
  - m_RefCount: 1
    m_Data: {fileID: 11400000, guid: 748ab026996d5b64a9c4cbe74a662bb0, type: 2}
  - m_RefCount: 1
    m_Data: {fileID: 11400000, guid: 65e407b1af643f64bb9a5abf012750e3, type: 2}
  - m_RefCount: 1
    m_Data: {fileID: 11400000, guid: ef726fc25602d8d49b447ec21af99f00, type: 2}
  - m_RefCount: 1
    m_Data: {fileID: 11400000, guid: 2bc992c3a55c785449743751c6ce09cd, type: 2}
  - m_RefCount: 1
    m_Data: {fileID: 11400000, guid: 8c932f5090382fe4daa42e465365e7b5, type: 2}
  - m_RefCount: 1
    m_Data: {fileID: 11400000, guid: 98777aeeda7e52248be531a2e38d88e1, type: 2}
  - m_RefCount: 1
    m_Data: {fileID: 11400000, guid: 368604700bddde342a4e7dfc2368a7b3, type: 2}
  - m_RefCount: 1
    m_Data: {fileID: 11400000, guid: c2923960b70a80b4baf0d02d812292c7, type: 2}
  - m_RefCount: 1
    m_Data: {fileID: 11400000, guid: c7ad9cefc79930b469fe51a94d5fd5dc, type: 2}
  - m_RefCount: 1
    m_Data: {fileID: 11400000, guid: d1b64791f941b2f4893023fb6a72aa4d, type: 2}
  - m_RefCount: 1
    m_Data: {fileID: 11400000, guid: 55585e543a3f91d43b17ee5cdcf93027, type: 2}
  - m_RefCount: 1
    m_Data: {fileID: 11400000, guid: 530fa772e2e92bb46aa1ae865eb57663, type: 2}
  - m_RefCount: 1
    m_Data: {fileID: 11400000, guid: c6d2f7f73fce80e44814fa21c9f5c304, type: 2}
  - m_RefCount: 1
    m_Data: {fileID: 11400000, guid: 3df54338d1b342945b630a927b26cb2a, type: 2}
  - m_RefCount: 1
    m_Data: {fileID: 11400000, guid: 45713e5d4dc5a344898d6c98048c69e5, type: 2}
  - m_RefCount: 1
    m_Data: {fileID: 11400000, guid: 50fa3424a3745a040a28e9193eb390bc, type: 2}
  - m_RefCount: 1
    m_Data: {fileID: 11400000, guid: b409fd737aff034478a799c716b803cc, type: 2}
  - m_RefCount: 1
    m_Data: {fileID: 11400000, guid: 35ddab993d9bdd44bad556cfb3e195bf, type: 2}
  - m_RefCount: 1
    m_Data: {fileID: 11400000, guid: 3c7a070015ce95d42b7b41a420995fec, type: 2}
  - m_RefCount: 1
    m_Data: {fileID: 11400000, guid: 9023f24b69feaa440b9cf679f4b7a810, type: 2}
  - m_RefCount: 1
    m_Data: {fileID: 11400000, guid: e0c0dd9d9cf94f44a9b4634d26323fee, type: 2}
  - m_RefCount: 1
    m_Data: {fileID: 11400000, guid: 5967e8a8c7fa5da4f839fed0cdd645e7, type: 2}
  - m_RefCount: 1
    m_Data: {fileID: 11400000, guid: df5c2b66c3630a64088bf3bb10bec2bc, type: 2}
  - m_RefCount: 1
    m_Data: {fileID: 11400000, guid: d5eb22eb70aa58d44ae1d71129b2a326, type: 2}
  - m_RefCount: 1
    m_Data: {fileID: 11400000, guid: 59a88c80d61450848a01ba060bc14438, type: 2}
  - m_RefCount: 1
    m_Data: {fileID: 11400000, guid: 48e8685ff7b690a448c44268c105da10, type: 2}
  - m_RefCount: 1
    m_Data: {fileID: 11400000, guid: 2352f3f1195940a428d4ce13a7b09683, type: 2}
  - m_RefCount: 1
    m_Data: {fileID: 11400000, guid: 24bc9abea0456584e87604b17f7e90da, type: 2}
  - m_RefCount: 1
    m_Data: {fileID: 11400000, guid: be9873cd7ee336b4aa40e27a9b90b9bc, type: 2}
  - m_RefCount: 1
    m_Data: {fileID: 11400000, guid: d233e44bb59d4344a8209898710ef29f, type: 2}
  - m_RefCount: 1
    m_Data: {fileID: 11400000, guid: fdd1270a38c35c8499f8e89bcb0cd95d, type: 2}
  - m_RefCount: 1
    m_Data: {fileID: 11400000, guid: dea684e18ab3de44a8afa94b7c1247a2, type: 2}
  - m_RefCount: 1
    m_Data: {fileID: 11400000, guid: 22aba6fc949f35c4f947fd8d38e06503, type: 2}
  - m_RefCount: 1
    m_Data: {fileID: 11400000, guid: 02bbf66e387a130459054e380f3777ce, type: 2}
  - m_RefCount: 1
    m_Data: {fileID: 11400000, guid: 91d7e196bd0b7c040b82c8e0cc958f8d, type: 2}
  - m_RefCount: 1
    m_Data: {fileID: 11400000, guid: fb9fa23943f0ac240a2d441ece32ec39, type: 2}
  - m_RefCount: 1
    m_Data: {fileID: 11400000, guid: fbdf151f8a865dc47b9d5bc3f6d0ac39, type: 2}
  - m_RefCount: 1
    m_Data: {fileID: 11400000, guid: 637eecfec31af394c901494ae8593446, type: 2}
  - m_RefCount: 1
    m_Data: {fileID: 11400000, guid: 19109f07fb57a7a4fa84c5933296b1b2, type: 2}
  - m_RefCount: 1
    m_Data: {fileID: 11400000, guid: 5c02deef76ae6c044acaa5c8c338ace4, type: 2}
  - m_RefCount: 1
    m_Data: {fileID: 11400000, guid: d99f69a919bbb9040a1b8f36d11a6c6b, type: 2}
  - m_RefCount: 1
    m_Data: {fileID: 11400000, guid: 4a1dc3de95e1a4743a64913b16179665, type: 2}
  - m_RefCount: 1
    m_Data: {fileID: 11400000, guid: 4b53878bc6245aa4185689a8c6438b7c, type: 2}
  - m_RefCount: 1
    m_Data: {fileID: 11400000, guid: 6dbe6f2791139e445a4c36215d2a338e, type: 2}
  - m_RefCount: 1
    m_Data: {fileID: 11400000, guid: 8bcf5b5d4b167874ba08fe0da20526f0, type: 2}
  - m_RefCount: 1
    m_Data: {fileID: 11400000, guid: e80bc7d4938b82b448774c9c8ce3fb0b, type: 2}
  - m_RefCount: 1
    m_Data: {fileID: 11400000, guid: 942dbaa21b0ab504e8e1b88b04a8736e, type: 2}
  - m_RefCount: 1
    m_Data: {fileID: 11400000, guid: e5ba0260aecc5b042b4ac6bff816c651, type: 2}
  - m_RefCount: 1
    m_Data: {fileID: 11400000, guid: 79d4fd74e5f7a8a4689bc79cfc252b96, type: 2}
  - m_RefCount: 1
    m_Data: {fileID: 11400000, guid: 743b96a186cdd904bb79e390378cb1dd, type: 2}
  - m_RefCount: 1
    m_Data: {fileID: 11400000, guid: d34b733513b379b448f5229fdd88d4a5, type: 2}
  - m_RefCount: 1
    m_Data: {fileID: 11400000, guid: 3a1432127f647634ba57610822f0d274, type: 2}
  - m_RefCount: 1
    m_Data: {fileID: 11400000, guid: 259e4c816350cd348bc17c87231bc851, type: 2}
  - m_RefCount: 1
    m_Data: {fileID: 11400000, guid: 571d7565e1f93ca49baee2bc163cf610, type: 2}
  - m_RefCount: 1
    m_Data: {fileID: 11400000, guid: fbc38bc268f2a9442bd568ad94bedad0, type: 2}
  - m_RefCount: 1
    m_Data: {fileID: 11400000, guid: 511dfa7ac32d4c44aaafc20a04cb662c, type: 2}
  - m_RefCount: 1
    m_Data: {fileID: 11400000, guid: c6ccd0419655d844495f70e42ad809c2, type: 2}
  - m_RefCount: 1
    m_Data: {fileID: 11400000, guid: 8a771a0e105df554fbc938534317bbc4, type: 2}
  - m_RefCount: 1
    m_Data: {fileID: 11400000, guid: ee07d9e805494934b83b84efcd880aa8, type: 2}
  - m_RefCount: 1
    m_Data: {fileID: 11400000, guid: 36124d4235f846043801347b34eb96a3, type: 2}
  - m_RefCount: 1
    m_Data: {fileID: 11400000, guid: 85dc470471362d24290ee9a2b5093c61, type: 2}
  - m_RefCount: 1
    m_Data: {fileID: 11400000, guid: 4cf074a600877174293e23d2b5226d90, type: 2}
  - m_RefCount: 1
    m_Data: {fileID: 11400000, guid: 6d52afcaf6727444e8fb9b2f2029a496, type: 2}
  - m_RefCount: 1
    m_Data: {fileID: 11400000, guid: 744d692548d6dd545afd85bff58b48e4, type: 2}
  - m_RefCount: 1
    m_Data: {fileID: 11400000, guid: a82c25c62d623d04e8dc297e78454eb0, type: 2}
  - m_RefCount: 1
    m_Data: {fileID: 11400000, guid: 196eb759a5a528e45954d518007e6a27, type: 2}
  - m_RefCount: 1
    m_Data: {fileID: 11400000, guid: c82f8c4703e41714b9285075ef36d749, type: 2}
  - m_RefCount: 1
    m_Data: {fileID: 11400000, guid: 2f2b834fa4177d14c8bcf2ba42883522, type: 2}
  - m_RefCount: 1
    m_Data: {fileID: 11400000, guid: 7f9484c77cd102f4f8ec1542cfb502dc, type: 2}
  - m_RefCount: 1
    m_Data: {fileID: 11400000, guid: 3269089fdc8c4504f882246848df1c86, type: 2}
  - m_RefCount: 1
    m_Data: {fileID: 11400000, guid: c1b06e7ede4b1004ebb4b35548ca67d1, type: 2}
  - m_RefCount: 1
    m_Data: {fileID: 11400000, guid: 89844b6d6f22a854ba4f1270d36b0ce1, type: 2}
  - m_RefCount: 1
    m_Data: {fileID: 11400000, guid: 5ee9928607721a84d9240ebe4954a897, type: 2}
  - m_RefCount: 1
    m_Data: {fileID: 11400000, guid: 512346c7cffbe8945a320e3abfa63fd8, type: 2}
  - m_RefCount: 1
    m_Data: {fileID: 11400000, guid: 5cc4b4ed3b49d7141852347cb411a190, type: 2}
  - m_RefCount: 1
    m_Data: {fileID: 11400000, guid: 49dd71e5e7bede94ab33502b32c01391, type: 2}
  - m_RefCount: 1
    m_Data: {fileID: 11400000, guid: 783f0560adc6b294f857f8b19e909a4d, type: 2}
  - m_RefCount: 1
    m_Data: {fileID: 11400000, guid: e2e027e6ce04d8e46a003d073ac0f9e8, type: 2}
  - m_RefCount: 1
    m_Data: {fileID: 11400000, guid: 5d5d5085ab7a1e04fb63b6be037c8c36, type: 2}
  - m_RefCount: 1
    m_Data: {fileID: 11400000, guid: 33f653224626b754ebd81f0553d30e7f, type: 2}
  - m_RefCount: 1
    m_Data: {fileID: 11400000, guid: b6808879adc6afc45a6ca9b5fdb474ec, type: 2}
  - m_RefCount: 1
    m_Data: {fileID: 11400000, guid: aae1054d220e4c2449c045fa2a2f4936, type: 2}
  - m_RefCount: 1
    m_Data: {fileID: 11400000, guid: 6ef935c1543df934ea6ae5eee02fb830, type: 2}
  - m_RefCount: 1
    m_Data: {fileID: 11400000, guid: 14c5fc95ee364824c9ec599901bf0b50, type: 2}
  - m_RefCount: 1
    m_Data: {fileID: 11400000, guid: 260ac88e7095398489502393b036e55a, type: 2}
  - m_RefCount: 1
    m_Data: {fileID: 11400000, guid: e487a34c52bad494db3592b3f6eff45c, type: 2}
  m_TileSpriteArray:
  - m_RefCount: 1
    m_Data: {fileID: -2527406384049011000, guid: 14882e25984922349871db3a972618bb, type: 3}
  - m_RefCount: 1
    m_Data: {fileID: -5043810790546849346, guid: 14882e25984922349871db3a972618bb, type: 3}
  - m_RefCount: 1
    m_Data: {fileID: 3758862390733383049, guid: 14882e25984922349871db3a972618bb, type: 3}
  - m_RefCount: 1
    m_Data: {fileID: 927450667673174160, guid: 14882e25984922349871db3a972618bb, type: 3}
  - m_RefCount: 1
    m_Data: {fileID: 1823048953446468025, guid: 14882e25984922349871db3a972618bb, type: 3}
  - m_RefCount: 1
    m_Data: {fileID: 6504452907052581091, guid: 14882e25984922349871db3a972618bb, type: 3}
  - m_RefCount: 1
    m_Data: {fileID: 9153258738859498887, guid: 14882e25984922349871db3a972618bb, type: 3}
  - m_RefCount: 1
    m_Data: {fileID: 1378068251089034365, guid: 14882e25984922349871db3a972618bb, type: 3}
  - m_RefCount: 1
    m_Data: {fileID: -2564032576524098436, guid: 14882e25984922349871db3a972618bb, type: 3}
  - m_RefCount: 1
    m_Data: {fileID: 6823571529453442794, guid: 14882e25984922349871db3a972618bb, type: 3}
  - m_RefCount: 1
    m_Data: {fileID: -8761391449306003191, guid: 14882e25984922349871db3a972618bb, type: 3}
  - m_RefCount: 1
    m_Data: {fileID: 6096126532202164060, guid: 14882e25984922349871db3a972618bb, type: 3}
  - m_RefCount: 1
    m_Data: {fileID: 1171786598264239514, guid: 14882e25984922349871db3a972618bb, type: 3}
  - m_RefCount: 1
    m_Data: {fileID: 2938325301389888496, guid: 14882e25984922349871db3a972618bb, type: 3}
  - m_RefCount: 1
    m_Data: {fileID: 6892653070513589053, guid: 14882e25984922349871db3a972618bb, type: 3}
  - m_RefCount: 1
    m_Data: {fileID: 5811768318273653402, guid: 14882e25984922349871db3a972618bb, type: 3}
  - m_RefCount: 1
    m_Data: {fileID: -909451264686722216, guid: 14882e25984922349871db3a972618bb, type: 3}
  - m_RefCount: 1
    m_Data: {fileID: 3510567541546622247, guid: 14882e25984922349871db3a972618bb, type: 3}
  - m_RefCount: 1
    m_Data: {fileID: -2292845510539038761, guid: 14882e25984922349871db3a972618bb, type: 3}
  - m_RefCount: 1
    m_Data: {fileID: 5809457251986423230, guid: 14882e25984922349871db3a972618bb, type: 3}
  - m_RefCount: 1
    m_Data: {fileID: -2966044447168542970, guid: 14882e25984922349871db3a972618bb, type: 3}
  - m_RefCount: 1
    m_Data: {fileID: -137098104263556674, guid: 14882e25984922349871db3a972618bb, type: 3}
  - m_RefCount: 1
    m_Data: {fileID: 4894150612136367923, guid: 14882e25984922349871db3a972618bb, type: 3}
  - m_RefCount: 1
    m_Data: {fileID: 4128242980305637353, guid: 14882e25984922349871db3a972618bb, type: 3}
  - m_RefCount: 1
    m_Data: {fileID: -7530259464496634229, guid: 14882e25984922349871db3a972618bb, type: 3}
  - m_RefCount: 1
    m_Data: {fileID: -3781211641475302327, guid: 14882e25984922349871db3a972618bb, type: 3}
  - m_RefCount: 1
    m_Data: {fileID: 307420960679640908, guid: 14882e25984922349871db3a972618bb, type: 3}
  - m_RefCount: 1
    m_Data: {fileID: 3398376854161980533, guid: 14882e25984922349871db3a972618bb, type: 3}
  - m_RefCount: 1
    m_Data: {fileID: 9216123747787695750, guid: 14882e25984922349871db3a972618bb, type: 3}
  - m_RefCount: 1
    m_Data: {fileID: -3516872149304022409, guid: 14882e25984922349871db3a972618bb, type: 3}
  - m_RefCount: 1
    m_Data: {fileID: -3470735806929903836, guid: 14882e25984922349871db3a972618bb, type: 3}
  - m_RefCount: 1
    m_Data: {fileID: 3025258220829997645, guid: 14882e25984922349871db3a972618bb, type: 3}
  - m_RefCount: 1
    m_Data: {fileID: 9076752257559138130, guid: 14882e25984922349871db3a972618bb, type: 3}
  - m_RefCount: 1
    m_Data: {fileID: 1050999005100789621, guid: 14882e25984922349871db3a972618bb, type: 3}
  - m_RefCount: 1
    m_Data: {fileID: -8547320073302532174, guid: 14882e25984922349871db3a972618bb, type: 3}
  - m_RefCount: 1
    m_Data: {fileID: -8280344554842373049, guid: 14882e25984922349871db3a972618bb, type: 3}
  - m_RefCount: 1
    m_Data: {fileID: 4400652784531154403, guid: 14882e25984922349871db3a972618bb, type: 3}
  - m_RefCount: 1
    m_Data: {fileID: 5687965069255678792, guid: 14882e25984922349871db3a972618bb, type: 3}
  - m_RefCount: 1
    m_Data: {fileID: 9056255274885631089, guid: 14882e25984922349871db3a972618bb, type: 3}
  - m_RefCount: 1
    m_Data: {fileID: 8553674699233921289, guid: 14882e25984922349871db3a972618bb, type: 3}
  - m_RefCount: 1
    m_Data: {fileID: -342138589133344208, guid: 14882e25984922349871db3a972618bb, type: 3}
  - m_RefCount: 1
    m_Data: {fileID: 2604836846744209098, guid: 14882e25984922349871db3a972618bb, type: 3}
  - m_RefCount: 1
    m_Data: {fileID: 2774061633389496032, guid: 14882e25984922349871db3a972618bb, type: 3}
  - m_RefCount: 1
    m_Data: {fileID: -928795530320820440, guid: 14882e25984922349871db3a972618bb, type: 3}
  - m_RefCount: 1
    m_Data: {fileID: 1322743683427987072, guid: 14882e25984922349871db3a972618bb, type: 3}
  - m_RefCount: 1
    m_Data: {fileID: -178960023614349795, guid: 14882e25984922349871db3a972618bb, type: 3}
  - m_RefCount: 1
    m_Data: {fileID: -3106690166283183348, guid: 14882e25984922349871db3a972618bb, type: 3}
  - m_RefCount: 1
    m_Data: {fileID: 6807686094138432031, guid: 14882e25984922349871db3a972618bb, type: 3}
  - m_RefCount: 1
    m_Data: {fileID: -7711962929110477281, guid: 14882e25984922349871db3a972618bb, type: 3}
  - m_RefCount: 1
    m_Data: {fileID: 1641652108122879299, guid: 14882e25984922349871db3a972618bb, type: 3}
  - m_RefCount: 1
    m_Data: {fileID: 6817181444223554414, guid: 14882e25984922349871db3a972618bb, type: 3}
  - m_RefCount: 1
    m_Data: {fileID: 3656081025416936426, guid: 14882e25984922349871db3a972618bb, type: 3}
  - m_RefCount: 1
    m_Data: {fileID: -4225201993979036379, guid: 14882e25984922349871db3a972618bb, type: 3}
  - m_RefCount: 1
    m_Data: {fileID: 8373748277760986354, guid: 14882e25984922349871db3a972618bb, type: 3}
  - m_RefCount: 1
    m_Data: {fileID: 3883609917179343836, guid: 14882e25984922349871db3a972618bb, type: 3}
  - m_RefCount: 1
    m_Data: {fileID: 1208516007781814325, guid: 14882e25984922349871db3a972618bb, type: 3}
  - m_RefCount: 1
    m_Data: {fileID: -4740068202963985062, guid: 14882e25984922349871db3a972618bb, type: 3}
  - m_RefCount: 1
    m_Data: {fileID: 4715370650717318108, guid: 14882e25984922349871db3a972618bb, type: 3}
  - m_RefCount: 1
    m_Data: {fileID: 8687766144448899851, guid: 14882e25984922349871db3a972618bb, type: 3}
  - m_RefCount: 1
    m_Data: {fileID: 1896301242955940899, guid: 14882e25984922349871db3a972618bb, type: 3}
  - m_RefCount: 1
    m_Data: {fileID: -3725185776171181425, guid: 14882e25984922349871db3a972618bb, type: 3}
  - m_RefCount: 1
    m_Data: {fileID: 1493956888200280199, guid: 14882e25984922349871db3a972618bb, type: 3}
  - m_RefCount: 1
    m_Data: {fileID: 8477623819897856274, guid: 14882e25984922349871db3a972618bb, type: 3}
  - m_RefCount: 1
    m_Data: {fileID: -4685982121006639535, guid: 14882e25984922349871db3a972618bb, type: 3}
  - m_RefCount: 1
    m_Data: {fileID: -7432995604421909245, guid: 14882e25984922349871db3a972618bb, type: 3}
  - m_RefCount: 1
    m_Data: {fileID: 8887469985711064531, guid: 14882e25984922349871db3a972618bb, type: 3}
  - m_RefCount: 1
    m_Data: {fileID: -7648549140430360947, guid: 14882e25984922349871db3a972618bb, type: 3}
  - m_RefCount: 1
    m_Data: {fileID: 2819579853370719494, guid: 14882e25984922349871db3a972618bb, type: 3}
  - m_RefCount: 1
    m_Data: {fileID: -5190625754331186284, guid: 14882e25984922349871db3a972618bb, type: 3}
  - m_RefCount: 1
    m_Data: {fileID: -2160214367949100984, guid: 14882e25984922349871db3a972618bb, type: 3}
  - m_RefCount: 1
    m_Data: {fileID: 680213414390525471, guid: 14882e25984922349871db3a972618bb, type: 3}
  - m_RefCount: 1
    m_Data: {fileID: 8585888832171637177, guid: 14882e25984922349871db3a972618bb, type: 3}
  - m_RefCount: 1
    m_Data: {fileID: 413297502612680955, guid: 14882e25984922349871db3a972618bb, type: 3}
  - m_RefCount: 1
    m_Data: {fileID: -4159069030795926283, guid: 14882e25984922349871db3a972618bb, type: 3}
  - m_RefCount: 1
    m_Data: {fileID: -4057903745781994259, guid: 14882e25984922349871db3a972618bb, type: 3}
  - m_RefCount: 1
    m_Data: {fileID: -1998847562946284802, guid: 14882e25984922349871db3a972618bb, type: 3}
  - m_RefCount: 1
    m_Data: {fileID: -1604127668387344009, guid: 14882e25984922349871db3a972618bb, type: 3}
  - m_RefCount: 1
    m_Data: {fileID: 3429747971534230043, guid: 14882e25984922349871db3a972618bb, type: 3}
  - m_RefCount: 1
    m_Data: {fileID: 751971594906365432, guid: 14882e25984922349871db3a972618bb, type: 3}
  - m_RefCount: 1
    m_Data: {fileID: -745934360932622352, guid: 14882e25984922349871db3a972618bb, type: 3}
  - m_RefCount: 1
    m_Data: {fileID: -2788902053587952718, guid: 14882e25984922349871db3a972618bb, type: 3}
  - m_RefCount: 1
    m_Data: {fileID: 6045622561447787469, guid: 14882e25984922349871db3a972618bb, type: 3}
  - m_RefCount: 1
    m_Data: {fileID: 9923094255347159, guid: 14882e25984922349871db3a972618bb, type: 3}
  - m_RefCount: 1
    m_Data: {fileID: -3852747639677801622, guid: 14882e25984922349871db3a972618bb, type: 3}
  - m_RefCount: 1
    m_Data: {fileID: -8414932990281067702, guid: 14882e25984922349871db3a972618bb, type: 3}
  - m_RefCount: 1
    m_Data: {fileID: 8072019840473805972, guid: 14882e25984922349871db3a972618bb, type: 3}
  - m_RefCount: 1
    m_Data: {fileID: 6278844459135155280, guid: 14882e25984922349871db3a972618bb, type: 3}
  - m_RefCount: 1
    m_Data: {fileID: 1165869332421374674, guid: 14882e25984922349871db3a972618bb, type: 3}
  - m_RefCount: 1
    m_Data: {fileID: -4484096456901989557, guid: 14882e25984922349871db3a972618bb, type: 3}
  - m_RefCount: 1
    m_Data: {fileID: -185296340130656550, guid: 14882e25984922349871db3a972618bb, type: 3}
  - m_RefCount: 1
    m_Data: {fileID: -962245770385012206, guid: 14882e25984922349871db3a972618bb, type: 3}
  - m_RefCount: 1
    m_Data: {fileID: -6056596044620195900, guid: 14882e25984922349871db3a972618bb, type: 3}
  - m_RefCount: 1
    m_Data: {fileID: 1726562037202421097, guid: 14882e25984922349871db3a972618bb, type: 3}
  - m_RefCount: 1
    m_Data: {fileID: 770538746373162514, guid: 14882e25984922349871db3a972618bb, type: 3}
  - m_RefCount: 1
    m_Data: {fileID: 8026364175160714863, guid: 14882e25984922349871db3a972618bb, type: 3}
  - m_RefCount: 1
    m_Data: {fileID: -6130433696007397636, guid: 14882e25984922349871db3a972618bb, type: 3}
  - m_RefCount: 1
    m_Data: {fileID: 6163419274140055177, guid: 14882e25984922349871db3a972618bb, type: 3}
  - m_RefCount: 1
    m_Data: {fileID: -7975087260107443330, guid: 14882e25984922349871db3a972618bb, type: 3}
  - m_RefCount: 1
    m_Data: {fileID: 6917468011319846633, guid: 14882e25984922349871db3a972618bb, type: 3}
  - m_RefCount: 1
    m_Data: {fileID: -5951639451219318435, guid: 14882e25984922349871db3a972618bb, type: 3}
  m_TileMatrixArray:
  - m_RefCount: 100
    m_Data:
      e00: 1
      e01: 0
      e02: 0
      e03: 0
      e10: 0
      e11: 1
      e12: 0
      e13: 0
      e20: 0
      e21: 0
      e22: 1
      e23: 0
      e30: 0
      e31: 0
      e32: 0
      e33: 1
  m_TileColorArray:
  - m_RefCount: 100
    m_Data: {r: 1, g: 1, b: 1, a: 1}
  m_TileObjectToInstantiateArray: []
  m_AnimationFrameRate: 1
  m_Color: {r: 1, g: 1, b: 1, a: 1}
  m_Origin: {x: -1, y: -9, z: 0}
  m_Size: {x: 10, y: 10, z: 1}
  m_TileAnchor: {x: 0.5, y: 0.5, z: 0}
  m_TileOrientation: 0
  m_TileOrientationMatrix:
    e00: 1
    e01: 0
    e02: 0
    e03: 0
    e10: 0
    e11: 1
    e12: 0
    e13: 0
    e20: 0
    e21: 0
    e22: 1
    e23: 0
    e30: 0
    e31: 0
    e32: 0
    e33: 1
--- !u!483693784 &5998237102306461115
TilemapRenderer:
  m_ObjectHideFlags: 0
  m_CorrespondingSourceObject: {fileID: 0}
  m_PrefabInstance: {fileID: 0}
  m_PrefabAsset: {fileID: 0}
  m_GameObject: {fileID: 6542538091405893372}
  m_Enabled: 1
  m_CastShadows: 0
  m_ReceiveShadows: 0
  m_DynamicOccludee: 0
  m_MotionVectors: 1
  m_LightProbeUsage: 0
  m_ReflectionProbeUsage: 0
  m_RayTracingMode: 0
  m_RayTraceProcedural: 0
  m_RenderingLayerMask: 1
  m_RendererPriority: 0
  m_Materials:
  - {fileID: 10754, guid: 0000000000000000f000000000000000, type: 0}
  m_StaticBatchInfo:
    firstSubMesh: 0
    subMeshCount: 0
  m_StaticBatchRoot: {fileID: 0}
  m_ProbeAnchor: {fileID: 0}
  m_LightProbeVolumeOverride: {fileID: 0}
  m_ScaleInLightmap: 1
  m_ReceiveGI: 1
  m_PreserveUVs: 0
  m_IgnoreNormalsForChartDetection: 0
  m_ImportantGI: 0
  m_StitchLightmapSeams: 1
  m_SelectedEditorRenderState: 0
  m_MinimumChartSize: 4
  m_AutoUVMaxDistance: 0.5
  m_AutoUVMaxAngle: 89
  m_LightmapParameters: {fileID: 0}
  m_SortingLayerID: 0
  m_SortingLayer: 0
  m_SortingOrder: 0
  m_ChunkSize: {x: 32, y: 32, z: 32}
  m_ChunkCullingBounds: {x: 0, y: 0, z: 0}
  m_MaxChunkCount: 16
  m_MaxFrameAge: 16
  m_SortOrder: 0
  m_Mode: 0
  m_DetectChunkCullingBounds: 0
  m_MaskInteraction: 0
--- !u!114 &309568697389530592
MonoBehaviour:
  m_ObjectHideFlags: 0
  m_CorrespondingSourceObject: {fileID: 0}
  m_PrefabInstance: {fileID: 0}
  m_PrefabAsset: {fileID: 0}
  m_GameObject: {fileID: 0}
  m_Enabled: 1
  m_EditorHideFlags: 0
  m_Script: {fileID: 12395, guid: 0000000000000000e000000000000000, type: 0}
  m_Name: Palette Settings
  m_EditorClassIdentifier: 
  cellSizing: 0
  m_TransparencySortMode: 0
  m_TransparencySortAxis: {x: 0, y: 0, z: 1}
